…
tractors_numeric %>%
  arrange(desc(`Cereal yield (kilograms per hectare) (kg per hectare)`))

## # A tibble: 6,835 x 6
##    Entity  Code   Year `Tractors per 100… `Cereal yield (kilo… `Total populatio…
##    <chr>   <chr> <dbl>              <dbl>                <dbl>             <dbl>
##  1 Puerto… PRI    1983               486.                9789.           3202000
##  2 Puerto… PRI    1981               523.                9695.           3132000
##  3 Puerto… PRI    1982               511.                9672.           3168000
##  4 Belgium BEL    2004              1137.                9185.          10480000
##  5 Kuwait  KWT    1994               160                 9148.           1659000
##  6 Belgium BEL    2005              1127.                8650.          10547000
##  7 Belgium BEL    2003              1150.                8531.          10419000
##  8 Belgium BEL    2002              1154.                8501.          10365000
##  9 Nether… NLD    1996              1866.                8293.          15563000
## 10 Belgium BEL    2001              1136.                8218.          10319000
## # … with 6,825 more rows
…
